[
  "assets/global/plugins/datatables/datatables.min.css",
  "assets/global/plugins/datatables/plugins/bootstrap/datatables.bootstrap.css",
  "assets/global/plugins/datatables/datatables.js",
  "assets/global/plugins/datatables/plugins/dataTables.fixedHeader.min.js",
  "assets/global/plugins/datatables/plugins/bootstrap/datatables.bootstrap.js",
  "https://cdn.datatables.net/responsive/2.1.0/js/dataTables.responsive.min.js"
]